[
  {
    "Caption": "PLC Comunication",
    "Message": "",
    "State": "ok"
  },
  {
    "Caption": "Cabinet ventilator breaker",
    "Message": "",
    "State": "ok"
  },
  {
    "Caption": "Cooling water extreme low",
    "Message": "",
    "State": "ok"
  },
  {
    "Caption": "Cooling water low",
    "Message": "",
    "State": "ok"
  },
  {
    "Caption": "Cooling unit",
    "Message": "",
    "State": "ok"
  },
  {
    "Caption": "Humidifier unit",
    "Message": "Humidifier error",
    "State": "error"
  },
  {
    "Caption": "Dehumidifier unit",
    "Message": "",
    "State": "ok"
  },
  {
    "Caption": "Power lost",
    "Message": "",
    "State": "ok"
  },
  {
    "Caption": "Power restored",
    "Message": "Power restored",
    "State": "warn"
  },
  {
    "Caption": "Lights air fitler",
    "Message": "",
    "State": "ok"
  },
  {
    "Caption": "Fresh air input",
    "Message": "",
    "State": "ok"
  },
  {
    "Caption": "Fresh air output",
    "Message": "",
    "State": "ok"
  },
  {
    "Caption": "Main pump",
    "Message": "",
    "State": "ok"
  },
  {
    "Caption": "Hall environment",
    "Message": "",
    "State": "ok"
  },
  {
    "Caption": "Outside environment",
    "Message": "",
    "State": "ok"
  },
  {
    "Caption": "Recuperation unit",
    "Message": "",
    "State": "ok"
  },
  {
    "Caption": "CO2 sensor",
    "Message": "",
    "State": "ok"
  },
  {
    "Caption": "Fresh air input",
    "Message": "",
    "State": "ok"
  },
  {
    "Caption": "Fresh air output",
    "Message": "",
    "State": "ok"
  },
  {
    "Caption": "Cooling water temperature",
    "Message": "",
    "State": "ok"
  },
  {
    "Caption": "Dehumidifier breaker",
    "Message": "",
    "State": "ok"
  },
  {
    "Caption": "Cooling unit breaker",
    "Message": "",
    "State": "ok"
  },
  {
    "Caption": "F1 Overheat",
    "Message": "",
    "State": "ok"
  },
  {
    "Caption": "F1 Temperature overlimit",
    "Message": "",
    "State": "ok"
  },
  {
    "Caption": "F1 Temperature underlimit",
    "Message": "",
    "State": "ok"
  },
  {
    "Caption": "F1 Humidity overlimit",
    "Message": "",
    "State": "ok"
  },
  {
    "Caption": "F1 Humidity underlimit",
    "Message": "F1 Humidity underlimit Error",
    "State": "error"
  },
  {
    "Caption": "F1 Lights Off",
    "Message": "",
    "State": "ok"
  },
  {
    "Caption": "F1 Pump",
    "Message": "",
    "State": "ok"
  },
  {
    "Caption": "F1 Heating",
    "Message": "",
    "State": "ok"
  },
  {
    "Caption": "F1 Lights breaker",
    "Message": "",
    "State": "ok"
  },
  {
    "Caption": "F1 Ventilator",
    "Message": "",
    "State": "ok"
  },
  {
    "Caption": "F1 Environment",
    "Message": "F1 Environment sensor error",
    "State": "error"
  },
  {
    "Caption": "F1 Temperature regulation",
    "Message": "",
    "State": "ok"
  },
  {
    "Caption": "F1 Humidity regulation",
    "Message": "",
    "State": "ok"
  },
  {
    "Caption": "F2 Overheat",
    "Message": "",
    "State": "ok"
  },
  {
    "Caption": "F2 Temperature overlimit",
    "Message": "F2 Temperature overlimit Error",
    "State": "error"
  },
  {
    "Caption": "F2 Temperature underlimit",
    "Message": "",
    "State": "ok"
  },
  {
    "Caption": "F2 Humidity overlimit",
    "Message": "",
    "State": "ok"
  },
  {
    "Caption": "F2 Humidity underlimit",
    "Message": "F2 Humidity underlimit Error",
    "State": "error"
  },
  {
    "Caption": "F2 Lights Off",
    "Message": "",
    "State": "ok"
  },
  {
    "Caption": "F2 Pump",
    "Message": "",
    "State": "ok"
  },
  {
    "Caption": "F2 Heating",
    "Message": "",
    "State": "ok"
  },
  {
    "Caption": "F2 Lights breaker",
    "Message": "",
    "State": "ok"
  },
  {
    "Caption": "F2 Ventilator",
    "Message": "",
    "State": "ok"
  },
  {
    "Caption": "F2 Environment",
    "Message": "F2 Environment sensor error",
    "State": "error"
  },
  {
    "Caption": "F2 Temperature regulation",
    "Message": "",
    "State": "ok"
  },
  {
    "Caption": "F2 Humidity regulation",
    "Message": "",
    "State": "ok"
  },
  {
    "Caption": "GSM present",
    "Message": "GSM modul not found",
    "State": "warn"
  }
]